{
  "id": "634dd7aa-e9af-49ae-ba32-d390f5ea31f9",
  "title": "Confirm cancellation task form",
  "description": "",
  "formKey": "alf_ctrwf:confirmCancellationTask",
  "formMode": null,
  "customModule": null,
  "definition": {
    "display": "form",
    "components": [
      {
        "label": "Comment",
        "autoExpand": false,
        "isUploadEnabled": false,
        "showWordCount": false,
        "showCharCount": false,
        "tableView": true,
        "alwaysEnabled": false,
        "defaultValue": "",
        "inputFormat": "plain",
        "encrypted": false,
        "validate": {
          "customMessage": "",
          "json": "",
          "required": false,
          "custom": "",
          "customPrivate": false,
          "minLength": "",
          "maxLength": "",
          "minWords": "",
          "maxWords": "",
          "pattern": ""
        },
        "key": "comment",
        "properties": {},
        "conditional": {
          "show": "",
          "when": "",
          "json": "",
          "eq": ""
        },
        "customConditional": "",
        "logic": [],
        "attributes": {},
        "rows": 2,
        "type": "textarea",
        "input": true,
        "tags": [],
        "placeholder": "",
        "prefix": "",
        "customClass": "",
        "suffix": "",
        "multiple": false,
        "protected": false,
        "unique": false,
        "persistent": true,
        "hidden": false,
        "clearOnHide": true,
        "dataGridLabel": false,
        "labelPosition": "top",
        "labelWidth": 30,
        "labelMargin": 3,
        "description": "",
        "errorLabel": "",
        "tooltip": "",
        "hideLabel": false,
        "tabindex": "",
        "disabled": false,
        "autofocus": false,
        "dbIndex": false,
        "customDefaultValue": "",
        "calculateValue": "",
        "allowCalculateOverride": false,
        "widget": {
          "format": "yyyy-MM-dd hh:mm a",
          "dateFormat": "yyyy-MM-dd hh:mm a",
          "saveAs": "text"
        },
        "refreshOn": "",
        "clearOnRefresh": false,
        "validateOn": "change",
        "mask": false,
        "inputType": "text",
        "inputMask": "",
        "wysiwyg": false,
        "editor": "",
        "id": "e01quba"
      },
      {
        "label": "Columns",
        "hideLabel": true,
        "inlineColumns": true,
        "columns": [
          {
            "components": [
              {
                "label": "Reject",
                "removeIndents": true,
                "state": "",
                "theme": "primary",
                "shortcut": "",
                "block": true,
                "disableOnInvalid": true,
                "mask": false,
                "tableView": true,
                "alwaysEnabled": false,
                "encrypted": false,
                "validate": {
                  "customMessage": "",
                  "json": "",
                  "required": false,
                  "custom": "",
                  "customPrivate": false
                },
                "key": "outcome_Reject",
                "properties": {},
                "conditional": {
                  "show": "",
                  "when": "",
                  "json": "",
                  "eq": ""
                },
                "customConditional": "",
                "logic": [
                  {
                    "name": "event",
                    "trigger": {
                      "type": "simple",
                      "simple": {
                        "show": true,
                        "when": "comment",
                        "eq": ""
                      }
                    },
                    "actions": [
                      {
                        "name": "set_disabled",
                        "type": "property",
                        "property": {
                          "label": "Disabled",
                          "value": "disabled",
                          "type": "boolean"
                        },
                        "state": "true"
                      }
                    ]
                  }
                ],
                "attributes": {},
                "type": "button",
                "input": true,
                "tags": [],
                "placeholder": "",
                "prefix": "",
                "customClass": "",
                "suffix": "",
                "multiple": false,
                "defaultValue": null,
                "protected": false,
                "unique": false,
                "persistent": false,
                "hidden": false,
                "clearOnHide": true,
                "dataGridLabel": true,
                "labelPosition": "top",
                "labelWidth": 30,
                "labelMargin": 3,
                "description": "",
                "errorLabel": "",
                "tooltip": "",
                "hideLabel": false,
                "tabindex": "",
                "disabled": false,
                "autofocus": false,
                "dbIndex": false,
                "customDefaultValue": "",
                "calculateValue": "",
                "allowCalculateOverride": false,
                "widget": null,
                "refreshOn": "",
                "clearOnRefresh": false,
                "validateOn": "change",
                "size": "md",
                "leftIcon": "",
                "rightIcon": "",
                "action": "submit",
                "id": "e9o9wvn"
              }
            ],
            "width": 4,
            "offset": 0,
            "push": 0,
            "pull": 0,
            "type": "column",
            "hideOnChildrenHidden": false,
            "input": false,
            "key": "column1",
            "tableView": true,
            "label": "",
            "xs": 0,
            "sm": 12,
            "md": 4,
            "lg": 0,
            "xl": 0,
            "classes": "",
            "index": 0,
            "placeholder": "",
            "prefix": "",
            "customClass": "",
            "suffix": "",
            "multiple": false,
            "defaultValue": null,
            "protected": false,
            "unique": false,
            "persistent": true,
            "hidden": false,
            "clearOnHide": true,
            "dataGridLabel": false,
            "labelPosition": "top",
            "labelWidth": 30,
            "labelMargin": 3,
            "description": "",
            "errorLabel": "",
            "tooltip": "",
            "hideLabel": false,
            "tabindex": "",
            "disabled": false,
            "autofocus": false,
            "dbIndex": false,
            "customDefaultValue": "",
            "calculateValue": "",
            "allowCalculateOverride": false,
            "widget": null,
            "refreshOn": "",
            "clearOnRefresh": false,
            "validateOn": "change",
            "validate": {
              "required": false,
              "custom": "",
              "customPrivate": false
            },
            "conditional": {
              "show": null,
              "when": null,
              "eq": ""
            },
            "id": "e7dh6g8"
          },
          {
            "width": 4,
            "offset": 0,
            "type": "column",
            "hideOnChildrenHidden": false,
            "input": false,
            "key": "column2",
            "tableView": true,
            "label": "",
            "push": 0,
            "pull": 0,
            "components": [
              {
                "label": "Send again",
                "removeIndents": true,
                "state": "",
                "theme": "primary",
                "shortcut": "",
                "block": true,
                "disableOnInvalid": true,
                "mask": false,
                "tableView": true,
                "alwaysEnabled": false,
                "encrypted": false,
                "validate": {
                  "customMessage": "",
                  "json": "",
                  "required": false,
                  "custom": "",
                  "customPrivate": false
                },
                "key": "outcome_SendAgain",
                "properties": {},
                "conditional": {
                  "show": "",
                  "when": "",
                  "json": "",
                  "eq": ""
                },
                "customConditional": "",
                "logic": [],
                "attributes": {},
                "type": "button",
                "input": true,
                "tags": [],
                "placeholder": "",
                "prefix": "",
                "customClass": "",
                "suffix": "",
                "multiple": false,
                "defaultValue": null,
                "protected": false,
                "unique": false,
                "persistent": false,
                "hidden": false,
                "clearOnHide": true,
                "dataGridLabel": true,
                "labelPosition": "top",
                "labelWidth": 30,
                "labelMargin": 3,
                "description": "",
                "errorLabel": "",
                "tooltip": "",
                "hideLabel": false,
                "tabindex": "",
                "disabled": false,
                "autofocus": false,
                "dbIndex": false,
                "customDefaultValue": "",
                "calculateValue": "",
                "allowCalculateOverride": false,
                "widget": null,
                "refreshOn": "",
                "clearOnRefresh": false,
                "validateOn": "change",
                "size": "md",
                "leftIcon": "",
                "rightIcon": "",
                "action": "submit",
                "id": "elsflw"
              }
            ],
            "index": 1,
            "xs": 0,
            "sm": 12,
            "md": 4,
            "lg": 0,
            "xl": 0,
            "classes": "",
            "placeholder": "",
            "prefix": "",
            "customClass": "",
            "suffix": "",
            "multiple": false,
            "defaultValue": null,
            "protected": false,
            "unique": false,
            "persistent": true,
            "hidden": false,
            "clearOnHide": true,
            "dataGridLabel": false,
            "labelPosition": "top",
            "labelWidth": 30,
            "labelMargin": 3,
            "description": "",
            "errorLabel": "",
            "tooltip": "",
            "hideLabel": false,
            "tabindex": "",
            "disabled": false,
            "autofocus": false,
            "dbIndex": false,
            "customDefaultValue": "",
            "calculateValue": "",
            "allowCalculateOverride": false,
            "widget": null,
            "refreshOn": "",
            "clearOnRefresh": false,
            "validateOn": "change",
            "validate": {
              "required": false,
              "custom": "",
              "customPrivate": false
            },
            "conditional": {
              "show": null,
              "when": null,
              "eq": ""
            },
            "id": "e7skj8p"
          },
          {
            "components": [],
            "width": 4,
            "offset": 0,
            "push": 0,
            "pull": 0,
            "type": "column",
            "hideOnChildrenHidden": false,
            "input": false,
            "key": "column3",
            "tableView": true,
            "label": "",
            "index": 2,
            "xs": 0,
            "sm": 12,
            "md": 4,
            "lg": 0,
            "xl": 0,
            "classes": "",
            "placeholder": "",
            "prefix": "",
            "customClass": "",
            "suffix": "",
            "multiple": false,
            "defaultValue": null,
            "protected": false,
            "unique": false,
            "persistent": true,
            "hidden": false,
            "clearOnHide": true,
            "dataGridLabel": false,
            "labelPosition": "top",
            "labelWidth": 30,
            "labelMargin": 3,
            "description": "",
            "errorLabel": "",
            "tooltip": "",
            "hideLabel": false,
            "tabindex": "",
            "disabled": false,
            "autofocus": false,
            "dbIndex": false,
            "customDefaultValue": "",
            "calculateValue": "",
            "allowCalculateOverride": false,
            "widget": null,
            "refreshOn": "",
            "clearOnRefresh": false,
            "validateOn": "change",
            "validate": {
              "required": false,
              "custom": "",
              "customPrivate": false
            },
            "conditional": {
              "show": null,
              "when": null,
              "eq": ""
            },
            "id": "egr4gkl"
          }
        ],
        "autoAdjust": true,
        "mask": false,
        "tableView": false,
        "alwaysEnabled": false,
        "key": "columns",
        "properties": {},
        "conditional": {
          "show": "",
          "when": "",
          "json": "",
          "eq": ""
        },
        "customConditional": "",
        "logic": [],
        "attributes": {},
        "type": "columns",
        "input": false,
        "tags": [],
        "placeholder": "",
        "prefix": "",
        "customClass": "",
        "suffix": "",
        "multiple": false,
        "defaultValue": null,
        "protected": false,
        "unique": false,
        "persistent": false,
        "hidden": false,
        "clearOnHide": false,
        "dataGridLabel": false,
        "labelPosition": "top",
        "labelWidth": 30,
        "labelMargin": 3,
        "description": "",
        "errorLabel": "",
        "tooltip": "",
        "tabindex": "",
        "disabled": false,
        "autofocus": false,
        "dbIndex": false,
        "customDefaultValue": "",
        "calculateValue": "",
        "allowCalculateOverride": false,
        "widget": null,
        "refreshOn": "",
        "clearOnRefresh": false,
        "validateOn": "change",
        "validate": {
          "required": false,
          "custom": "",
          "customPrivate": false
        },
        "hideOnChildrenHidden": false,
        "id": "ew6ndsm"
      }
    ]
  },
  "i18n": {
    "en": {
      "Comment": "Comment",
      "Send again": "Send again",
      "Reject": "Reject"
    },
    "ru": {
      "Comment": "Комментарий",
      "Send again": "Повторно направить",
      "Reject": "Подтвердить отмену"
    }
  }
}